ST 558 | Project 1 | Team N
…
#base URL for example: api.census.gov/data/2022/acs/acs1/pums?get=SEX,PWGTP,MAR&SCHL=24&key=YOUR_KEY
test_URL <- "https://api.census.gov/data/2022/acs/acs1/pums?get=SEX,PWGTP,MAR,ST&SCHL=24"
test_results <- GET(test_URL)
#str(test_results,max.level=1)
test_parsed_content = fromJSON(rawToChar(test_results$content))
test_tibble = as_tibble(test_parsed_content)

Warning: The `x` argument of `as_tibble.matrix()` must have unique column names if
`.name_repair` is omitted as of tibble 2.0.0.
ℹ Using compatibility `.name_repair`.

test_tibble

# A tibble: 44,080 × 5
   V1    V2    V3    V4    V5   
   <chr> <chr> <chr> <chr> <chr>
 1 SEX   PWGTP MAR   ST    SCHL 
 2 2     6     5     17    24   
 3 2     23    2     06    24   
 4 1     23    3     42    24   
 5 1     80    5     49    24   
 6 1     16    1     18    24   
 7 1     107   3     18    24   
 8 2     10    5     13    24   
 9 1     22    1     39    24   
10 2     127   5     32    24   
# ℹ 44,070 more rows
…
}

#check for same end result as original test
getToTibble(test_results)

# A tibble: 44,080 × 5
   V1    V2    V3    V4    V5   
   <chr> <chr> <chr> <chr> <chr>
 1 SEX   PWGTP MAR   ST    SCHL 
 2 2     6     5     17    24   
 3 2     23    2     06    24   
 4 1     23    3     42    24   
 5 1     80    5     49    24   
 6 1     16    1     18    24   
 7 1     107   3     18    24   
 8 2     10    5     13    24   
 9 1     22    1     39    24   
10 2     127   5     32    24   
# ℹ 44,070 more rows
…
